%YAML 1.1
%TAG !u! tag:unity3d.com,2011:
--- !u!78 &1
TagManager:
  serializedVersion: 2
  tags:
  - Damage Object
  - DamageObject
  - Enemy
  - UpgradeItem
  - RespawnPoint
  - HealthDrop
  - Spike
  - EnemyHealth
  - EnemyDamage
  - PlayerWeapon
  - SavePointSword
  - SavePoint
  - Shop
  - Currency
  layers:
  - Default
  - TransparentFX
  - Ignore Raycast
  - 
  - Water
  - UI
  - Ground
  - Walls
  - playerLayer
  - 
  - 
  - 
  - 
  - 
  - 
  - 
  - 
  - 
  - 
  - 
  - 
  - 
  - 
  - 
  - 
  - 
  - 
  - 
  - 
  - 
  - 
  - 
  m_SortingLayers:
  - name: Default
    uniqueID: 0
    locked: 0
